Removed Pin From Net: NetName=5VB Pin=BOOST2-4
Removed Pin From Net: NetName=5VB Pin=C18-1
Added Component: Designator=D2(D-5)
Add component. Clean all parameters for all variants
Added Pin To Net: NetName=5V Pin=D2-C
Added Pin To Net: NetName=5VB2 Pin=BOOST2-4
Added Pin To Net: NetName=5VB2 Pin=C18-1
Added Pin To Net: NetName=5VB2 Pin=D2-A
Added Net: Name=5VB2
Added Member To Class: ClassName=NIA Member=Component D2 <b>DIODE</b>
